<?xml version="1.0" encoding="UTF-8"?><!--created with www.mysitemapgenerator.com-->
<urlset xmlns:xsi="http://www.w3.org/2001/XMLSchema-instance" xmlns="http://www.sitemaps.org/schemas/sitemap/0.9" xsi:schemaLocation="http://www.sitemaps.org/schemas/sitemap/0.9 http://www.sitemaps.org/schemas/sitemap/0.9/sitemap.xsd">
  <url>
	<loc>http://tbanks.ru/</loc>
	<lastmod>2013-01-05T18:30:24+01:00</lastmod>
	<priority>1.0</priority>
</url>
<url>
	<loc>http://tbanks.ru/?cat=105</loc>
	<lastmod>2013-01-05T18:30:27+01:00</lastmod>
	<priority>1.0</priority>
</url>
<url>
	<loc>http://tbanks.ru/?cat=110</loc>
	<lastmod>2013-01-05T18:30:28+01:00</lastmod>
	<priority>1.0</priority>
</url>
<url>
	<loc>http://tbanks.ru/?cat=108</loc>
	<lastmod>2013-01-05T18:30:30+01:00</lastmod>
	<priority>1.0</priority>
</url>
<url>
	<loc>http://tbanks.ru/?cat=106</loc>
	<lastmod>2013-01-05T18:30:31+01:00</lastmod>
	<priority>1.0</priority>
</url>
<url>
	<loc>http://tbanks.ru/?cat=107</loc>
	<lastmod>2013-01-05T18:30:33+01:00</lastmod>
	<priority>1.0</priority>
</url>
<url>
	<loc>http://tbanks.ru/?cat=109</loc>
	<lastmod>2013-01-05T18:30:34+01:00</lastmod>
	<priority>1.0</priority>
</url>
<url>
	<loc>http://tbanks.ru/?cat=111</loc>
	<lastmod>2013-01-05T18:30:35+01:00</lastmod>
	<priority>1.0</priority>
</url>
<url>
    <loc>http://tbanks.ru/?p=91</loc>
    <lastmod>2013-01-08T18:49:32+04:00</lastmod>
    <changefreq>monthly</changefreq>
    <priority>1</priority>
  </url>
  <url>
    <loc>http://tbanks.ru/?p=166</loc>
    <lastmod>2012-12-27T18:51:43+04:00</lastmod>
    <changefreq>monthly</changefreq>
    <priority>1</priority>
  </url>
  <url>
    <loc>http://tbanks.ru/?p=184</loc>
    <lastmod>2013-01-24T15:45:19+04:00</lastmod>
    <changefreq>monthly</changefreq>
    <priority>1</priority>
  </url>
  <url>
    <loc>http://tbanks.ru/?p=200</loc>
    <lastmod>2012-12-27T18:02:45+04:00</lastmod>
    <changefreq>monthly</changefreq>
    <priority>1</priority>
  </url>
  <url>
    <loc>http://tbanks.ru/?p=210</loc>
    <lastmod>2012-12-27T18:53:09+04:00</lastmod>
    <changefreq>monthly</changefreq>
    <priority>1</priority>
  </url>
  <url>
    <loc>http://tbanks.ru/?p=226</loc>
    <lastmod>2012-12-27T18:07:51+04:00</lastmod>
    <changefreq>monthly</changefreq>
    <priority>1</priority>
  </url>
  <url>
    <loc>http://tbanks.ru/?p=252</loc>
    <lastmod>2012-12-31T14:48:44+04:00</lastmod>
    <changefreq>monthly</changefreq>
    <priority>1</priority>
  </url>
  <url>
    <loc>http://tbanks.ru/?p=428</loc>
    <lastmod>2013-01-30T18:43:37+04:00</lastmod>
    <changefreq>monthly</changefreq>
    <priority>1</priority>
  </url>
  <url>
    <loc>http://tbanks.ru/?p=452</loc>
    <lastmod>2012-12-27T17:31:10+04:00</lastmod>
    <changefreq>monthly</changefreq>
    <priority>1</priority>
  </url>
  <url>
    <loc>http://tbanks.ru/?p=466</loc>
    <lastmod>2012-12-27T18:48:31+04:00</lastmod>
    <changefreq>monthly</changefreq>
    <priority>1</priority>
  </url>
  <url>
    <loc>http://tbanks.ru/?p=483</loc>
    <lastmod>2012-12-27T19:01:32+04:00</lastmod>
    <changefreq>monthly</changefreq>
    <priority>1</priority>
  </url>
  <url>
    <loc>http://tbanks.ru/?p=502</loc>
    <lastmod>2013-01-24T13:32:05+04:00</lastmod>
    <changefreq>monthly</changefreq>
    <priority>1</priority>
  </url>
  <url>
    <loc>http://tbanks.ru/?p=717</loc>
    <lastmod>2013-01-08T19:07:49+04:00</lastmod>
    <changefreq>monthly</changefreq>
    <priority>1</priority>
  </url>
  <url>
    <loc>http://tbanks.ru/?p=720</loc>
    <lastmod>2013-01-08T18:36:30+04:00</lastmod>
    <changefreq>monthly</changefreq>
    <priority>1</priority>
  </url>
  <url>
    <loc>http://tbanks.ru/?p=723</loc>
    <lastmod>2013-01-08T18:15:02+04:00</lastmod>
    <changefreq>monthly</changefreq>
    <priority>1</priority>
  </url>
  <url>
    <loc>http://tbanks.ru/?p=840</loc>
    <lastmod>2012-12-27T17:13:11+04:00</lastmod>
    <changefreq>monthly</changefreq>
    <priority>1</priority>
  </url>
  <url>
    <loc>http://tbanks.ru/?p=847</loc>
    <lastmod>2013-01-08T18:22:15+04:00</lastmod>
    <changefreq>monthly</changefreq>
    <priority>1</priority>
  </url>
  <url>
    <loc>http://tbanks.ru/?p=921</loc>
    <lastmod>2012-12-27T16:51:38+04:00</lastmod>
    <changefreq>monthly</changefreq>
    <priority>1</priority>
  </url>
  <url>
    <loc>http://tbanks.ru/?p=1020</loc>
    <lastmod>2013-01-08T18:31:43+04:00</lastmod>
    <changefreq>monthly</changefreq>
    <priority>1</priority>
  </url>
  <url>
    <loc>http://tbanks.ru/?p=1023</loc>
    <lastmod>2013-01-08T19:01:33+04:00</lastmod>
    <changefreq>monthly</changefreq>
    <priority>1</priority>
  </url>
  <url>
    <loc>http://tbanks.ru/?p=1282</loc>
    <lastmod>2012-12-27T17:35:40+04:00</lastmod>
    <changefreq>monthly</changefreq>
    <priority>1</priority>
  </url>
  <url>
    <loc>http://tbanks.ru/?p=1322</loc>
    <lastmod>2012-12-27T17:29:22+04:00</lastmod>
    <changefreq>monthly</changefreq>
    <priority>1</priority>
  </url>
  <url>
    <loc>http://tbanks.ru/?p=1345</loc>
    <lastmod>2012-12-27T16:44:56+04:00</lastmod>
    <changefreq>monthly</changefreq>
    <priority>1</priority>
  </url>
  <url>
    <loc>http://tbanks.ru/?p=1353</loc>
    <lastmod>2012-12-27T16:52:37+04:00</lastmod>
    <changefreq>monthly</changefreq>
    <priority>1</priority>
  </url>
  <url>
    <loc>http://tbanks.ru/?p=1354</loc>
    <lastmod>2013-01-08T19:03:47+04:00</lastmod>
    <changefreq>monthly</changefreq>
    <priority>1</priority>
  </url>
  <url>
    <loc>http://tbanks.ru/?p=1362</loc>
    <lastmod>2013-01-31T13:24:51+04:00</lastmod>
    <changefreq>monthly</changefreq>
    <priority>1</priority>
  </url>
  <url>
    <loc>http://tbanks.ru/?p=1363</loc>
    <lastmod>2012-12-27T17:02:39+04:00</lastmod>
    <changefreq>monthly</changefreq>
    <priority>1</priority>
  </url>
  <url>
    <loc>http://tbanks.ru/?p=1371</loc>
    <lastmod>2013-01-08T18:52:16+04:00</lastmod>
    <changefreq>monthly</changefreq>
    <priority>1</priority>
  </url>
  <url>
    <loc>http://tbanks.ru/?p=1378</loc>
    <lastmod>2012-12-27T17:21:31+04:00</lastmod>
    <changefreq>monthly</changefreq>
    <priority>1</priority>
  </url>
  <url>
    <loc>http://tbanks.ru/?p=1395</loc>
    <lastmod>2013-01-08T19:09:53+04:00</lastmod>
    <changefreq>monthly</changefreq>
    <priority>1</priority>
  </url>
  <url>
    <loc>http://tbanks.ru/?p=1402</loc>
    <lastmod>2012-12-27T17:48:41+04:00</lastmod>
    <changefreq>monthly</changefreq>
    <priority>1</priority>
  </url>
  <url>
    <loc>http://tbanks.ru/?p=1411</loc>
    <lastmod>2012-12-27T17:58:51+04:00</lastmod>
    <changefreq>monthly</changefreq>
    <priority>1</priority>
  </url>
  <url>
    <loc>http://tbanks.ru/?p=1545</loc>
    <lastmod>2013-01-10T20:54:35+04:00</lastmod>
    <changefreq>monthly</changefreq>
    <priority>1</priority>
  </url>
  <url>
    <loc>http://tbanks.ru/?p=1670</loc>
    <lastmod>2013-01-29T23:40:43+04:00</lastmod>
    <changefreq>monthly</changefreq>
    <priority>1</priority>
  </url>
  <url>
    <loc>http://tbanks.ru/?p=1692</loc>
    <lastmod>2013-01-08T18:25:57+04:00</lastmod>
    <changefreq>monthly</changefreq>
    <priority>1</priority>
  </url>
  <url>
    <loc>http://tbanks.ru/?p=1704</loc>
    <lastmod>2013-01-08T18:33:33+04:00</lastmod>
    <changefreq>monthly</changefreq>
    <priority>1</priority>
  </url>
  <url>
    <loc>http://tbanks.ru/?p=1711</loc>
    <lastmod>2012-12-30T01:59:55+04:00</lastmod>
    <changefreq>monthly</changefreq>
    <priority>1</priority>
  </url>
  <url>
    <loc>http://tbanks.ru/?p=1786</loc>
    <lastmod>2013-01-14T18:59:56+04:00</lastmod>
    <changefreq>monthly</changefreq>
    <priority>1</priority>
  </url>
  <url>
    <loc>http://tbanks.ru/?p=1796</loc>
    <lastmod>2013-01-14T19:26:25+04:00</lastmod>
    <changefreq>monthly</changefreq>
    <priority>1</priority>
  </url>
  <url>
    <loc>http://tbanks.ru/?p=1817</loc>
    <lastmod>2013-01-24T14:21:10+04:00</lastmod>
    <changefreq>monthly</changefreq>
    <priority>1</priority>
  </url>
  <url>
    <loc>http://tbanks.ru/?p=1830</loc>
    <lastmod>2013-01-25T20:54:54+04:00</lastmod>
    <changefreq>monthly</changefreq>
    <priority>1</priority>
  </url>
  <url>
    <loc>http://tbanks.ru/?p=1838</loc>
    <lastmod>2013-01-25T21:18:09+04:00</lastmod>
    <changefreq>monthly</changefreq>
    <priority>1</priority>
  </url>
  <url>
    <loc>http://tbanks.ru/?p=1856</loc>
    <lastmod>2013-01-31T15:01:14+04:00</lastmod>
    <changefreq>monthly</changefreq>
    <priority>1</priority>
  </url>
  <url>
    <loc>http://tbanks.ru/?p=1867</loc>
    <lastmod>2013-01-31T15:54:25+04:00</lastmod>
    <changefreq>monthly</changefreq>
    <priority>1</priority>
  </url>
  <url>
    <loc>http://tbanks.ru/?p=1877</loc>
    <lastmod>2013-02-06T17:41:45+04:00</lastmod>
    <changefreq>monthly</changefreq>
    <priority>1</priority>
  </url>
  <url>
    <loc>http://tbanks.ru/?p=1893</loc>
    <lastmod>2013-02-06T17:41:26+04:00</lastmod>
    <changefreq>monthly</changefreq>
    <priority>1</priority>
  </url>
<url>
	<loc>http://tbanks.ru/?tag=bez-poruchitelej</loc>
	<lastmod>2013-01-05T18:31:27+01:00</lastmod>
	<priority>1.0</priority>
</url>
<url>
	<loc>http://tbanks.ru/?tag=kredit-bez-poruchitelej</loc>
	<lastmod>2013-01-05T18:31:32+01:00</lastmod>
	<priority>1.0</priority>
</url>
<url>
	<loc>http://tbanks.ru/?tag=renessans-kredit-bank</loc>
	<lastmod>2013-01-05T18:31:35+01:00</lastmod>
	<priority>1.0</priority>
</url>
<url>
	<loc>http://tbanks.ru/?tag=kredit-fizicheskim-licam</loc>
	<lastmod>2013-01-05T18:31:43+01:00</lastmod>
	<priority>1.0</priority>
</url>
<url>
	<loc>http://tbanks.ru/?tag=moj-bank</loc>
	<lastmod>2013-01-05T18:31:44+01:00</lastmod>
	<priority>1.0</priority>
</url>
<url>
	<loc>http://tbanks.ru/?tag=vtb24</loc>
	<lastmod>2013-01-05T18:31:47+01:00</lastmod>
	<priority>1.0</priority>
</url>
<url>
	<loc>http://tbanks.ru/?tag=zajm-dlya-biznesa</loc>
	<lastmod>2013-01-05T18:31:47+01:00</lastmod>
	<priority>1.0</priority>
</url>
<url>
	<loc>http://tbanks.ru/?tag=bank-moskvy</loc>
	<lastmod>2013-01-05T18:31:49+01:00</lastmod>
	<priority>1.0</priority>
</url>
<url>
	<loc>http://tbanks.ru/?tag=besprocentnyj-kredit</loc>
	<lastmod>2013-01-05T18:31:49+01:00</lastmod>
	<priority>1.0</priority>
</url>
<url>
	<loc>http://tbanks.ru/?tag=oformi-zayavku-na-kredit-v-moskve</loc>
	<lastmod>2013-01-05T18:31:51+01:00</lastmod>
	<priority>1.0</priority>
</url>
<url>
	<loc>http://tbanks.ru/?tag=sdelat-vklad</loc>
	<lastmod>2013-01-05T18:31:54+01:00</lastmod>
	<priority>1.0</priority>
</url>
<url>
	<loc>http://tbanks.ru/?tag=zajm-pod-zalog-avtomobilya</loc>
	<lastmod>2013-01-05T18:31:54+01:00</lastmod>
	<priority>1.0</priority>
</url>
<url>
	<loc>http://tbanks.ru/?tag=kruglosutochnyj-avtolombard</loc>
	<lastmod>2013-01-05T18:31:54+01:00</lastmod>
	<priority>1.0</priority>
</url>
<url>
	<loc>http://tbanks.ru/?tag=nalichka-bystro</loc>
	<lastmod>2013-01-05T18:31:56+01:00</lastmod>
	<priority>1.0</priority>
</url>
<url>
	<loc>http://tbanks.ru/?tag=nalichnye-za-30-minut</loc>
	<lastmod>2013-01-05T18:31:57+01:00</lastmod>
	<priority>1.0</priority>
</url>
<url>
	<loc>http://tbanks.ru/?tag=ge-money</loc>
	<lastmod>2013-01-05T18:31:57+01:00</lastmod>
	<priority>1.0</priority>
</url>
<url>
	<loc>http://tbanks.ru/?tag=kredit-do-1-000-000-rub</loc>
	<lastmod>2013-01-05T18:31:59+01:00</lastmod>
	<priority>1.0</priority>
</url>
<url>
	<loc>http://tbanks.ru/?tag=nalichnye-dengi</loc>
	<lastmod>2013-01-05T18:32:02+01:00</lastmod>
	<priority>1.0</priority>
</url>
<url>
	<loc>http://tbanks.ru/?tag=domashnie-dengi</loc>
	<lastmod>2013-01-05T18:32:02+01:00</lastmod>
	<priority>1.0</priority>
</url>
<url>
	<loc>http://tbanks.ru/?tag=kredit-nalichnymi</loc>
	<lastmod>2013-01-05T18:32:03+01:00</lastmod>
	<priority>1.0</priority>
</url>
<url>
	<loc>http://tbanks.ru/?tag=poluchit-mikrozajm</loc>
	<lastmod>2013-01-05T18:32:05+01:00</lastmod>
	<priority>1.0</priority>
</url>
<url>
	<loc>http://tbanks.ru/?tag=vygodnye-usloviya-kreditovaniya</loc>
	<lastmod>2013-01-05T18:32:05+01:00</lastmod>
	<priority>1.0</priority>
</url>
<url>
	<loc>http://tbanks.ru/?tag=kredit-v-moskve</loc>
	<lastmod>2013-01-05T18:32:05+01:00</lastmod>
	<priority>1.0</priority>
</url>
<url>
	<loc>http://tbanks.ru/?tag=malenkij-procent-po-kreditu</loc>
	<lastmod>2013-01-05T18:32:07+01:00</lastmod>
	<priority>1.0</priority>
</url>
<url>
	<loc>http://tbanks.ru/?tag=etalon-kredit</loc>
	<lastmod>2013-01-05T18:32:08+01:00</lastmod>
	<priority>1.0</priority>
</url>
<url>
	<loc>http://tbanks.ru/?tag=dengi</loc>
	<lastmod>2013-01-05T18:32:08+01:00</lastmod>
	<priority>1.0</priority>
</url>
<url>
	<loc>http://tbanks.ru/?tag=3-000-000</loc>
	<lastmod>2013-01-05T18:32:13+01:00</lastmod>
	<priority>1.0</priority>
</url>
<url>
	<loc>http://tbanks.ru/?tag=broker</loc>
	<lastmod>2013-01-05T18:32:13+01:00</lastmod>
	<priority>1.0</priority>
</url>
<url>
	<loc>http://tbanks.ru/?tag=nizkij-procent-po-kreditu</loc>
	<lastmod>2013-01-05T18:32:15+01:00</lastmod>
	<priority>1.0</priority>
</url>
<url>
	<loc>http://tbanks.ru/?tag=edinyj-kreditnyj-centr-fosborn-xoum</loc>
	<lastmod>2013-01-05T18:32:16+01:00</lastmod>
	<priority>1.0</priority>
</url>
<url>
	<loc>http://tbanks.ru/?tag=kredit-dlya-biznesa</loc>
	<lastmod>2013-01-05T18:32:18+01:00</lastmod>
	<priority>1.0</priority>
</url>
<url>
	<loc>http://tbanks.ru/?tag=incredit</loc>
	<lastmod>2013-01-05T18:32:18+01:00</lastmod>
	<priority>1.0</priority>
</url>
<url>
	<loc>http://tbanks.ru/?tag=in-kredit</loc>
	<lastmod>2013-01-05T18:32:19+01:00</lastmod>
	<priority>1.0</priority>
</url>
<url>
	<loc>http://tbanks.ru/?tag=inkredit</loc>
	<lastmod>2013-01-05T18:32:21+01:00</lastmod>
	<priority>1.0</priority>
</url>
<url>
	<loc>http://tbanks.ru/?tag=vklad-v-bank</loc>
	<lastmod>2013-01-05T18:32:23+01:00</lastmod>
	<priority>1.0</priority>
</url>
<url>
	<loc>http://tbanks.ru/?tag=vygodnyj-procent</loc>
	<lastmod>2013-01-05T18:32:25+01:00</lastmod>
	<priority>1.0</priority>
</url>
<url>
	<loc>http://tbanks.ru/?tag=pervonachalnyj-vznos-1000</loc>
	<lastmod>2013-01-05T18:32:26+01:00</lastmod>
	<priority>1.0</priority>
</url>
<url>
	<loc>http://tbanks.ru/?tag=zakazat-kreditku</loc>
	<lastmod>2013-01-05T18:32:26+01:00</lastmod>
	<priority>1.0</priority>
</url>
<url>
	<loc>http://tbanks.ru/?tag=internet-bank</loc>
	<lastmod>2013-01-05T18:32:28+01:00</lastmod>
	<priority>1.0</priority>
</url>
<url>
	<loc>http://tbanks.ru/?tag=fleksinvest-bank</loc>
	<lastmod>2013-01-05T18:32:29+01:00</lastmod>
	<priority>1.0</priority>
</url>
<url>
	<loc>http://tbanks.ru/?tag=rosbank</loc>
	<lastmod>2013-01-05T18:32:30+01:00</lastmod>
	<priority>1.0</priority>
</url>
<url>
	<loc>http://tbanks.ru/?tag=bez-zaloga-ot-50000-do-1000000-rub</loc>
	<lastmod>2013-01-05T18:32:32+01:00</lastmod>
	<priority>1.0</priority>
</url>
<url>
	<loc>http://tbanks.ru/?tag=zajmy-dlya-biznesa</loc>
	<lastmod>2013-01-05T18:32:32+01:00</lastmod>
	<priority>1.0</priority>
</url>
<url>
	<loc>http://tbanks.ru/?tag=zajmy-dlya-ip</loc>
	<lastmod>2013-01-05T18:32:34+01:00</lastmod>
	<priority>1.0</priority>
</url>
<url>
	<loc>http://tbanks.ru/?tag=zao</loc>
	<lastmod>2013-01-05T18:32:35+01:00</lastmod>
	<priority>1.0</priority>
</url>
<url>
	<loc>http://tbanks.ru/?tag=oao</loc>
	<lastmod>2013-01-05T18:32:35+01:00</lastmod>
	<priority>1.0</priority>
</url>
<url>
	<loc>http://tbanks.ru/?tag=ooo</loc>
	<lastmod>2013-01-05T18:32:37+01:00</lastmod>
	<priority>1.0</priority>
</url>
<url>
	<loc>http://tbanks.ru/?tag=finotdel</loc>
	<lastmod>2013-01-05T18:32:38+01:00</lastmod>
	<priority>1.0</priority>
</url>
<url>
	<loc>http://tbanks.ru/?tag=biznes</loc>
	<lastmod>2013-01-05T18:32:38+01:00</lastmod>
	<priority>1.0</priority>
</url>
<url>
	<loc>http://tbanks.ru/?tag=probiznesbank</loc>
	<lastmod>2013-01-05T18:32:40+01:00</lastmod>
	<priority>1.0</priority>
</url>
<url>
	<loc>http://tbanks.ru/?tag=bank-2t</loc>
	<lastmod>2013-01-05T18:32:41+01:00</lastmod>
	<priority>1.0</priority>
</url>
<url>
	<loc>http://tbanks.ru/?tag=kreditnaya-karta</loc>
	<lastmod>2013-01-05T18:32:41+01:00</lastmod>
	<priority>1.0</priority>
</url>
<url>
	<loc>http://tbanks.ru/?tag=bank-kredit-moskva</loc>
	<lastmod>2013-01-05T18:32:44+01:00</lastmod>
	<priority>1.0</priority>
</url>
<url>
	<loc>http://tbanks.ru/?tag=kredit-na-avto</loc>
	<lastmod>2013-01-05T18:32:44+01:00</lastmod>
	<priority>1.0</priority>
</url>
<url>
	<loc>http://tbanks.ru/?tag=procentnaya-stavka</loc>
	<lastmod>2013-01-05T18:32:47+01:00</lastmod>
	<priority>1.0</priority>
</url>
<url>
	<loc>http://tbanks.ru/?tag=da-dengi</loc>
	<lastmod>2013-01-05T18:32:47+01:00</lastmod>
	<priority>1.0</priority>
</url>
<url>
	<loc>http://tbanks.ru/?tag=zajmy</loc>
	<lastmod>2013-01-05T18:32:47+01:00</lastmod>
	<priority>1.0</priority>
</url>
<url>
	<loc>http://tbanks.ru/?tag=bystrye-dengi</loc>
	<lastmod>2013-01-05T18:32:50+01:00</lastmod>
	<priority>1.0</priority>
</url>
<url>
	<loc>http://tbanks.ru/?tag=mgnovennyj-kredit</loc>
	<lastmod>2013-01-05T18:32:51+01:00</lastmod>
	<priority>1.0</priority>
</url>
<url>
	<loc>http://tbanks.ru/?tag=mikrozajm</loc>
	<lastmod>2013-01-05T18:32:53+01:00</lastmod>
	<priority>1.0</priority>
</url>
</urlset>